EESchema Schematic File Version 4
EELAYER 30 0
EELAYER END
$Descr A4 11693 8268
encoding utf-8
Sheet 1 1
Title "label on PCB \"22W230V\""
Date ""
Rev ""
Comp "done at Bitraf"
Comment1 "reverse engineered schematic"
Comment2 "by Torfinn Ingolfsen"
Comment3 ""
Comment4 ""
$EndDescr
$Comp
L Device:CP C3
U 1 1 5F4613C9
P 5200 4950
F 0 "C3" H 5318 4996 50  0000 L CNN
F 1 "5.6 uF 400V" H 5318 4905 50  0000 L CNN
F 2 "" H 5238 4800 50  0001 C CNN
F 3 "~" H 5200 4950 50  0001 C CNN
	1    5200 4950
	1    0    0    -1  
$EndComp
$Comp
L Device:D D3
U 1 1 5F461BBD
P 4650 4750
F 0 "D3" H 4650 4533 50  0000 C CNN
F 1 "D" H 4650 4624 50  0000 C CNN
F 2 "" H 4650 4750 50  0001 C CNN
F 3 "~" H 4650 4750 50  0001 C CNN
	1    4650 4750
	-1   0    0    1   
$EndComp
$Comp
L Device:D D4
U 1 1 5F462253
P 4650 5100
F 0 "D4" H 4650 4883 50  0000 C CNN
F 1 "D" H 4650 4974 50  0000 C CNN
F 2 "" H 4650 5100 50  0001 C CNN
F 3 "~" H 4650 5100 50  0001 C CNN
	1    4650 5100
	-1   0    0    1   
$EndComp
Wire Wire Line
	4800 4750 5200 4750
Wire Wire Line
	5200 4750 5200 4800
Wire Wire Line
	4800 5100 4800 4750
Connection ~ 4800 4750
Wire Wire Line
	5200 5100 5200 5400
Wire Wire Line
	5200 5400 3800 5400
Wire Wire Line
	3800 4750 3900 4750
$Comp
L Connector:Conn_01x02_Female J1
U 1 1 5F463F3F
P 1400 4900
F 0 "J1" H 1292 4575 50  0000 C CNN
F 1 "AC IN" H 1292 4666 50  0000 C CNN
F 2 "" H 1400 4900 50  0001 C CNN
F 3 "~" H 1400 4900 50  0001 C CNN
	1    1400 4900
	-1   0    0    1   
$EndComp
$Comp
L Device:Transformer_1P_1S T1
U 1 1 5F4650CA
P 2850 4850
F 0 "T1" H 2850 5231 50  0000 C CNN
F 1 "Transformer_1P_1S" H 2850 5140 50  0000 C CNN
F 2 "" H 2850 4850 50  0001 C CNN
F 3 "~" H 2850 4850 50  0001 C CNN
	1    2850 4850
	1    0    0    -1  
$EndComp
$Comp
L Device:C C1
U 1 1 5F467277
P 2200 4850
F 0 "C1" H 2315 4896 50  0000 L CNN
F 1 "C" H 2315 4805 50  0000 L CNN
F 2 "" H 2238 4700 50  0001 C CNN
F 3 "~" H 2200 4850 50  0001 C CNN
	1    2200 4850
	1    0    0    -1  
$EndComp
$Comp
L Device:C C2
U 1 1 5F46848C
P 3450 4900
F 0 "C2" H 3565 4946 50  0000 L CNN
F 1 "C" H 3565 4855 50  0000 L CNN
F 2 "" H 3488 4750 50  0001 C CNN
F 3 "~" H 3450 4900 50  0001 C CNN
	1    3450 4900
	1    0    0    -1  
$EndComp
Wire Wire Line
	4500 4750 4350 4750
Wire Wire Line
	4350 4750 4350 4350
Wire Wire Line
	4350 4350 3450 4350
Connection ~ 4350 4750
Wire Wire Line
	4350 4750 4200 4750
Wire Wire Line
	4350 5100 4350 5250
Wire Wire Line
	4350 5250 3450 5250
Wire Wire Line
	3800 5100 3800 5400
Wire Wire Line
	3800 4750 3800 5100
Connection ~ 3800 5100
Wire Wire Line
	3900 5100 3800 5100
Wire Wire Line
	4200 5100 4350 5100
$Comp
L Device:D D2
U 1 1 5F462B6A
P 4050 5100
F 0 "D2" H 4050 4883 50  0000 C CNN
F 1 "D" H 4050 4974 50  0000 C CNN
F 2 "" H 4050 5100 50  0001 C CNN
F 3 "~" H 4050 5100 50  0001 C CNN
	1    4050 5100
	-1   0    0    1   
$EndComp
Wire Wire Line
	4500 5100 4350 5100
Connection ~ 4350 5100
$Comp
L Device:Q_NPN_BCE Q1
U 1 1 5F47AA78
P 6650 3000
F 0 "Q1" H 6841 3046 50  0000 L CNN
F 1 "3DD13005MD" H 6841 2955 50  0000 L CNN
F 2 "Package_TO_SOT_THT:TO-220-3_Vertical" H 6850 3100 50  0001 C CNN
F 3 "~" H 6650 3000 50  0001 C CNN
	1    6650 3000
	1    0    0    -1  
$EndComp
Connection ~ 5200 4750
$Comp
L power:GND #PWR0101
U 1 1 5F47CF6A
P 5200 5400
F 0 "#PWR0101" H 5200 5150 50  0001 C CNN
F 1 "GND" H 5205 5227 50  0000 C CNN
F 2 "" H 5200 5400 50  0001 C CNN
F 3 "" H 5200 5400 50  0001 C CNN
	1    5200 5400
	1    0    0    -1  
$EndComp
Connection ~ 5200 5400
$Comp
L Device:R R1
U 1 1 5F480A06
P 7100 4750
F 0 "R1" H 7030 4704 50  0000 R CNN
F 1 "5.87M" H 7030 4795 50  0000 R CNN
F 2 "" V 7030 4750 50  0001 C CNN
F 3 "~" H 7100 4750 50  0001 C CNN
	1    7100 4750
	-1   0    0    1   
$EndComp
$Comp
L Device:C C6
U 1 1 5F4818F4
P 7100 5200
F 0 "C6" H 7215 5246 50  0000 L CNN
F 1 "22nF" H 7215 5155 50  0000 L CNN
F 2 "" H 7138 5050 50  0001 C CNN
F 3 "~" H 7100 5200 50  0001 C CNN
	1    7100 5200
	1    0    0    -1  
$EndComp
$Comp
L Device:R R2
U 1 1 5F485872
P 5500 3500
F 0 "R2" H 5570 3546 50  0000 L CNN
F 1 "226M" H 5570 3455 50  0000 L CNN
F 2 "" V 5430 3500 50  0001 C CNN
F 3 "~" H 5500 3500 50  0001 C CNN
	1    5500 3500
	1    0    0    -1  
$EndComp
$Comp
L Device:R R4
U 1 1 5F489574
P 8200 5150
F 0 "R4" H 8270 5196 50  0000 L CNN
F 1 "0.22" H 8270 5105 50  0000 L CNN
F 2 "" V 8130 5150 50  0001 C CNN
F 3 "~" H 8200 5150 50  0001 C CNN
	1    8200 5150
	1    0    0    -1  
$EndComp
$Comp
L Device:C C4
U 1 1 5F48CF53
P 5500 3150
F 0 "C4" H 5615 3196 50  0000 L CNN
F 1 "22nF" H 5615 3105 50  0000 L CNN
F 2 "" H 5538 3000 50  0001 C CNN
F 3 "~" H 5500 3150 50  0001 C CNN
	1    5500 3150
	1    0    0    -1  
$EndComp
$Comp
L Device:R R8
U 1 1 5F4A8144
P 6900 2500
F 0 "R8" V 6693 2500 50  0000 C CNN
F 1 "22" V 6784 2500 50  0000 C CNN
F 2 "" V 6830 2500 50  0001 C CNN
F 3 "~" H 6900 2500 50  0001 C CNN
	1    6900 2500
	0    1    1    0   
$EndComp
$Comp
L Connector:Conn_01x04_Female J2
U 1 1 5F4AE49B
P 9500 3600
F 0 "J2" H 9528 3576 50  0000 L CNN
F 1 "to bulb" H 9528 3485 50  0000 L CNN
F 2 "" H 9500 3600 50  0001 C CNN
F 3 "~" H 9500 3600 50  0001 C CNN
	1    9500 3600
	1    0    0    -1  
$EndComp
$Comp
L Device:C C8
U 1 1 5F4AFEAA
P 8600 3850
F 0 "C8" H 8715 3896 50  0000 L CNN
F 1 "CBB 28682J 1250V CJB" H 8715 3805 50  0000 L CNN
F 2 "" H 8638 3700 50  0001 C CNN
F 3 "~" H 8600 3850 50  0001 C CNN
	1    8600 3850
	1    0    0    -1  
$EndComp
$Comp
L Device:C C7
U 1 1 5F4B3545
P 9200 5150
F 0 "C7" H 9315 5196 50  0000 L CNN
F 1 "0.1uF" H 9315 5105 50  0000 L CNN
F 2 "" H 9238 5000 50  0001 C CNN
F 3 "~" H 9200 5150 50  0001 C CNN
	1    9200 5150
	1    0    0    -1  
$EndComp
$Comp
L Device:D D1
U 1 1 5F4633AE
P 4050 4750
F 0 "D1" H 4050 4533 50  0000 C CNN
F 1 "D" H 4050 4624 50  0000 C CNN
F 2 "" H 4050 4750 50  0001 C CNN
F 3 "~" H 4050 4750 50  0001 C CNN
	1    4050 4750
	-1   0    0    1   
$EndComp
Wire Wire Line
	3450 4750 3450 4350
Connection ~ 3450 4350
Wire Wire Line
	3450 4350 3250 4350
Wire Wire Line
	3450 5050 3450 5250
Connection ~ 3450 5250
Wire Wire Line
	3250 5050 3250 5250
Wire Wire Line
	3250 5250 3450 5250
Wire Wire Line
	3250 4650 3250 4350
Wire Wire Line
	2450 5050 2200 5050
Wire Wire Line
	2450 4650 2200 4650
Wire Wire Line
	1650 4650 1650 4800
Wire Wire Line
	1650 4800 1600 4800
Wire Wire Line
	1600 4900 1650 4900
Wire Wire Line
	1650 4900 1650 5050
Wire Wire Line
	2200 5000 2200 5050
Connection ~ 2200 5050
Wire Wire Line
	2200 5050 2050 5050
Wire Wire Line
	2200 4700 2200 4650
Connection ~ 2200 4650
$Comp
L Device:Fuse F1
U 1 1 5F4D6175
P 1900 5050
F 0 "F1" V 1703 5050 50  0000 C CNN
F 1 "2A" V 1794 5050 50  0000 C CNN
F 2 "" V 1830 5050 50  0001 C CNN
F 3 "~" H 1900 5050 50  0001 C CNN
	1    1900 5050
	0    1    1    0   
$EndComp
$Comp
L Device:D D7
U 1 1 5F4D72A6
P 7450 3950
F 0 "D7" V 7404 4030 50  0000 L CNN
F 1 "D" V 7495 4030 50  0000 L CNN
F 2 "" H 7450 3950 50  0001 C CNN
F 3 "~" H 7450 3950 50  0001 C CNN
	1    7450 3950
	0    1    1    0   
$EndComp
$Comp
L Diode:DB3 DB3
U 1 1 5F4DC5C3
P 7450 4300
F 0 "DB3" V 7404 4430 50  0000 L CNN
F 1 "DB3" V 7495 4430 50  0000 L CNN
F 2 "Diode_THT:D_DO-35_SOD27_P7.62mm_Horizontal" H 7450 4075 50  0001 C CNN
F 3 "http://cdn-reichelt.de/documents/datenblatt/A100/DB%203%23st.pdf" H 7450 4300 50  0001 C CNN
	1    7450 4300
	0    1    1    0   
$EndComp
$Comp
L Device:L_Core_Ferrite L1
U 1 1 5F4FBC22
P 8700 3250
F 0 "L1" H 8788 3296 50  0000 L CNN
F 1 "1.83mH" H 8788 3205 50  0000 L CNN
F 2 "" H 8700 3250 50  0001 C CNN
F 3 "~" H 8700 3250 50  0001 C CNN
	1    8700 3250
	1    0    0    -1  
$EndComp
$Comp
L Device:Transformer_1P_2S L3
U 1 1 5F504F79
P 9100 2700
F 0 "L3" H 9100 3281 50  0000 C CNN
F 1 "Transformer_1P_2S" H 9100 3190 50  0000 C CNN
F 2 "" H 9100 2700 50  0001 C CNN
F 3 "~" H 9100 2700 50  0001 C CNN
	1    9100 2700
	1    0    0    -1  
$EndComp
$Comp
L power:GND #PWR0102
U 1 1 5F50B347
P 9850 3100
F 0 "#PWR0102" H 9850 2850 50  0001 C CNN
F 1 "GND" H 9855 2927 50  0000 C CNN
F 2 "" H 9850 3100 50  0001 C CNN
F 3 "" H 9850 3100 50  0001 C CNN
	1    9850 3100
	1    0    0    -1  
$EndComp
Wire Wire Line
	9500 2000 8650 2000
$Comp
L Device:R R6
U 1 1 5F510925
P 10350 2750
F 0 "R6" H 10280 2704 50  0000 R CNN
F 1 "33" H 10280 2795 50  0000 R CNN
F 2 "" V 10280 2750 50  0001 C CNN
F 3 "~" H 10350 2750 50  0001 C CNN
	1    10350 2750
	-1   0    0    1   
$EndComp
$Comp
L Device:R R5
U 1 1 5F5239AD
P 7450 4900
F 0 "R5" H 7520 4946 50  0000 L CNN
F 1 "22" H 7520 4855 50  0000 L CNN
F 2 "" V 7380 4900 50  0001 C CNN
F 3 "~" H 7450 4900 50  0001 C CNN
	1    7450 4900
	1    0    0    -1  
$EndComp
$Comp
L Device:R R7
U 1 1 5F52B354
P 10100 2950
F 0 "R7" H 10030 2904 50  0000 R CNN
F 1 "33" H 10030 2995 50  0000 R CNN
F 2 "" V 10030 2950 50  0001 C CNN
F 3 "~" H 10100 2950 50  0001 C CNN
	1    10100 2950
	-1   0    0    1   
$EndComp
Wire Wire Line
	10350 2900 10350 3050
Wire Wire Line
	5200 5400 6500 5400
$Comp
L Device:C C5
U 1 1 5F47D537
P 6150 4150
F 0 "C5" H 6265 4196 50  0000 L CNN
F 1 "3.3nF" H 6265 4105 50  0000 L CNN
F 2 "" H 6188 4000 50  0001 C CNN
F 3 "~" H 6150 4150 50  0001 C CNN
	1    6150 4150
	1    0    0    -1  
$EndComp
$Comp
L Device:D D5
U 1 1 5F47B117
P 5800 4150
F 0 "D5" V 5846 4070 50  0000 R CNN
F 1 "D" V 5755 4070 50  0000 R CNN
F 2 "" H 5800 4150 50  0001 C CNN
F 3 "~" H 5800 4150 50  0001 C CNN
	1    5800 4150
	0    -1   -1   0   
$EndComp
$Comp
L Device:C C9
U 1 1 5F49FC38
P 7800 4800
F 0 "C9" H 7915 4846 50  0000 L CNN
F 1 "22nF" H 7915 4755 50  0000 L CNN
F 2 "" H 7838 4650 50  0001 C CNN
F 3 "~" H 7800 4800 50  0001 C CNN
	1    7800 4800
	1    0    0    -1  
$EndComp
$Comp
L Device:Q_NPN_BCE Q2
U 1 1 5F4885C8
P 8100 4600
F 0 "Q2" H 8291 4646 50  0000 L CNN
F 1 "3DD13005MD" H 8291 4555 50  0000 L CNN
F 2 "Package_TO_SOT_THT:TO-220-3_Vertical" H 8300 4700 50  0001 C CNN
F 3 "~" H 8100 4600 50  0001 C CNN
	1    8100 4600
	1    0    0    -1  
$EndComp
Connection ~ 8200 5400
Wire Wire Line
	7100 5350 7100 5400
Connection ~ 7100 5400
Wire Wire Line
	7100 5050 7100 4900
Connection ~ 7450 5400
Wire Wire Line
	7450 5400 8200 5400
Wire Wire Line
	7100 5400 7450 5400
Wire Wire Line
	7100 4600 7100 4550
$Comp
L Device:R R3
U 1 1 5F48323E
P 7100 3350
F 0 "R3" H 7030 3304 50  0000 R CNN
F 1 "5.87M" H 7030 3395 50  0000 R CNN
F 2 "" V 7030 3350 50  0001 C CNN
F 3 "~" H 7100 3350 50  0001 C CNN
	1    7100 3350
	-1   0    0    1   
$EndComp
Connection ~ 7100 4550
Connection ~ 6450 3000
Connection ~ 6750 2800
Wire Wire Line
	6450 2500 6450 3000
Wire Wire Line
	6450 2500 6750 2500
Wire Wire Line
	6750 2800 7100 2800
$Comp
L Device:D D6
U 1 1 5F47ED32
P 6500 5150
F 0 "D6" V 6454 5230 50  0000 L CNN
F 1 "D" V 6545 5230 50  0000 L CNN
F 2 "" H 6500 5150 50  0001 C CNN
F 3 "~" H 6500 5150 50  0001 C CNN
	1    6500 5150
	0    1    1    0   
$EndComp
Wire Wire Line
	5200 2800 6750 2800
Wire Wire Line
	5200 2800 5200 4550
Connection ~ 5200 4550
Wire Wire Line
	5200 4550 5200 4750
Wire Wire Line
	5800 4300 5800 4550
Connection ~ 5800 4550
Wire Wire Line
	5800 4550 5500 4550
Wire Wire Line
	5800 3650 5800 4000
Wire Wire Line
	5800 3650 6150 3650
Wire Wire Line
	6150 4300 6150 4550
Connection ~ 6150 4550
Wire Wire Line
	6150 4550 5800 4550
Wire Wire Line
	6150 4000 6150 3650
Connection ~ 6150 3650
Wire Wire Line
	6150 3650 6500 3650
Wire Wire Line
	5500 3650 5500 4550
Connection ~ 5500 4550
Wire Wire Line
	5500 4550 5200 4550
Wire Wire Line
	5500 3300 5500 3350
Connection ~ 5500 3350
Wire Wire Line
	5500 3000 6450 3000
Wire Wire Line
	6750 3200 6750 3350
Wire Wire Line
	5500 3350 6750 3350
Wire Wire Line
	6500 5000 6500 3650
Connection ~ 6500 3650
Wire Wire Line
	6500 5300 6500 5400
Connection ~ 6500 5400
Wire Wire Line
	6500 3650 8200 3650
Wire Wire Line
	6500 5400 7100 5400
Wire Wire Line
	8700 3100 8700 2900
Wire Wire Line
	8700 3500 8700 3400
Wire Wire Line
	8700 2500 8650 2500
Connection ~ 8650 2500
Wire Wire Line
	8650 2000 8650 2500
Wire Wire Line
	9500 2000 9500 2300
Wire Wire Line
	9500 2600 10350 2600
Wire Wire Line
	9500 3100 9850 3100
Wire Wire Line
	9500 2800 10100 2800
Wire Wire Line
	7450 4100 7450 4150
Wire Wire Line
	7450 3800 7450 2500
Connection ~ 7450 2500
Wire Wire Line
	7450 2500 8650 2500
Wire Wire Line
	7050 2500 7450 2500
Wire Wire Line
	6450 2500 6450 1700
Wire Wire Line
	6450 1700 10700 1700
Wire Wire Line
	10700 1700 10700 3050
Wire Wire Line
	10700 3050 10350 3050
Connection ~ 6450 2500
Wire Wire Line
	7450 5050 7450 5400
Wire Wire Line
	7450 4450 7450 4600
Wire Wire Line
	8200 5300 8200 5400
Wire Wire Line
	8200 5000 8200 4950
Wire Wire Line
	7800 4950 8200 4950
Connection ~ 8200 4950
Wire Wire Line
	7800 4650 7800 4600
Wire Wire Line
	8200 4800 8200 4950
Wire Wire Line
	8200 3650 8200 4400
Wire Wire Line
	7900 4600 7800 4600
Connection ~ 7800 4600
Wire Wire Line
	7800 4600 7450 4600
Connection ~ 7450 4600
Wire Wire Line
	7450 4600 7450 4750
Wire Wire Line
	7800 4400 7800 4600
Wire Wire Line
	7800 4400 10100 4400
Wire Wire Line
	10100 3100 10100 4400
Wire Wire Line
	7100 3200 7100 2800
Wire Wire Line
	7100 3500 7100 3800
Wire Wire Line
	6150 4550 7100 4550
Wire Wire Line
	7100 3800 7450 3800
Connection ~ 7100 3800
Wire Wire Line
	7100 3800 7100 4550
Connection ~ 7450 3800
Wire Wire Line
	8700 3500 9300 3500
Wire Wire Line
	9300 3600 8600 3600
Wire Wire Line
	8600 3700 8600 3600
Wire Wire Line
	8600 4000 8900 4000
Wire Wire Line
	8900 4000 8900 3700
Wire Wire Line
	8900 3700 9300 3700
Wire Wire Line
	9200 3800 9300 3800
Wire Wire Line
	9200 5400 9200 5300
Wire Wire Line
	8200 5400 9200 5400
Wire Wire Line
	9200 3800 9200 5000
Wire Wire Line
	1650 5050 1750 5050
Wire Wire Line
	1650 4650 2200 4650
$EndSCHEMATC
